Combinational_Circuits/adder_tb.vcd
$date
	Fri Oct 03 16:18:42 2025
$end
$version
	ModelSim Version 2020.1
$end
$timescale
	1ps
$end

$scope module tb_serial_adder $end
$var reg 4 ! x [3:0] $end
$var reg 4 " y [3:0] $end
$var reg 1 # Load $end
$var reg 1 $ Clock $end
$var wire 1 % S [3] $end
$var wire 1 & S [2] $end
$var wire 1 ' S [1] $end
$var wire 1 ( S [0] $end

$scope module uut $end
$var wire 1 ) x [3] $end
$var wire 1 * x [2] $end
$var wire 1 + x [1] $end
$var wire 1 , x [0] $end
$var wire 1 - y [3] $end
$var wire 1 . y [2] $end
$var wire 1 / y [1] $end
$var wire 1 0 y [0] $end
$var wire 1 1 Load $end
$var wire 1 2 Clock $end
$var wire 1 % S [3] $end
$var wire 1 & S [2] $end
$var wire 1 ' S [1] $end
$var wire 1 ( S [0] $end
$var wire 1 3 PO [3] $end
$var wire 1 4 PO [2] $end
$var wire 1 5 PO [1] $end
$var wire 1 6 PO [0] $end
$var wire 1 7 SI $end
$var wire 1 8 SO1 $end
$var wire 1 9 SO2 $end

$scope module r1 $end
$var wire 1 1 Load $end
$var wire 1 2 Clock $end
$var wire 1 7 SI $end
$var wire 1 ) PI [3] $end
$var wire 1 * PI [2] $end
$var wire 1 + PI [1] $end
$var wire 1 , PI [0] $end
$var wire 1 8 SO $end
$var wire 1 % PO [3] $end
$var wire 1 & PO [2] $end
$var wire 1 ' PO [1] $end
$var wire 1 ( PO [0] $end
$var reg 4 : R [3:0] $end
$upscope $end

$scope module r2 $end
$var wire 1 1 Load $end
$var wire 1 2 Clock $end
$var wire 1 ; SI $end
$var wire 1 - PI [3] $end
$var wire 1 . PI [2] $end
$var wire 1 / PI [1] $end
$var wire 1 0 PI [0] $end
$var wire 1 9 SO $end
$var wire 1 3 PO [3] $end
$var wire 1 4 PO [2] $end
$var wire 1 5 PO [1] $end
$var wire 1 6 PO [0] $end
$var reg 4 < R [3:0] $end
$upscope $end

$scope module sa $end
$var wire 1 8 x $end
$var wire 1 9 y $end
$var wire 1 2 Clock $end
$var wire 1 1 Clear $end
$var wire 1 7 S $end
$var reg 1 = D $end
$var wire 1 > C1 $end
$var wire 1 ? C $end
$upscope $end
$upscope $end
$upscope $end
$enddefinitions $end
#0
$dumpvars
b0 !
b0 "
0#
0$
bx :
b0xxx <
x=
x(
x'
x&
x%
x6
x5
x4
03
x7
x8
x9
x>
x?
02
01
00
0/
0.
0-
0,
0+
0*
0)
0;
$end
#2
1#
b101 !
b11 "
11
10
1/
1,
1*
0>
#5
1$
12
#10
0$
02
b101 :
b11 <
0=
19
18
07
1?
16
15
04
1(
0'
1&
0%
#12
0#
01
1>
#15
1$
12
#20
0$
02
b10 :
b1 <
1=
08
05
0(
1'
0&
#25
1$
12
#30
0$
02
b1 :
b0 <
09
18
06
1(
0'
#35
1$
12
#40
0$
02
b0 :
08
17
0?
0(
0>
#45
1$
12
#50
0$
02
b1000 :
0=
07
1%
